[gd_scene load_steps=3 format=2]

[ext_resource path="res://scenes/ParallaxBackground.tscn" type="PackedScene" id=1]
[ext_resource path="res://scenes/GUI.tscn" type="PackedScene" id=2]

[node name="Camera2D" type="Camera2D"]

position = Vector2( 512, 300 )
anchor_mode = 1
rotating = false
current = false
zoom = Vector2( 1, 1 )
limit_left = -10000000
limit_top = -10000000
limit_right = 10000000
limit_bottom = 10000000
limit_smoothed = false
drag_margin_h_enabled = true
drag_margin_v_enabled = true
smoothing_enabled = false
smoothing_speed = 5.0
offset_v = 0.0
offset_h = 0.0
drag_margin_left = 0.2
drag_margin_top = 0.2
drag_margin_right = 0.2
drag_margin_bottom = 0.2
editor_draw_screen = true
editor_draw_limits = false
editor_draw_drag_margin = false
_sections_unfolded = [ "Drag Margin", "Editor", "Limit", "Material", "Offset", "Smoothing", "Transform", "Visibility", "Z Index" ]
__meta__ = {
"_edit_vertical_guides_": [  ]
}

[node name="ParallaxBackground" parent="." index="0" instance=ExtResource( 1 )]

[node name="CanvasLayer" parent="." index="1" instance=ExtResource( 2 )]


