[gd_scene load_steps=4 format=2]

[ext_resource path="res://scripts/Cloud.gd" type="Script" id=1]
[ext_resource path="res://assets/GFX/Enemies/cloud.png" type="Texture" id=2]

[sub_resource type="Animation" id=1]

resource_name = "float"
length = 20.0
loop = true
step = 2.0
tracks/0/type = "value"
tracks/0/path = NodePath(".:position")
tracks/0/interp = 1
tracks/0/loop_wrap = true
tracks/0/imported = false
tracks/0/enabled = true
tracks/0/keys = {
"times": PoolRealArray( 0, 4, 6, 14, 16, 20 ),
"transitions": PoolRealArray( 1, 1, 1, 1, 1, 1 ),
"update": 0,
"values": [ Vector2( 0, 0 ), Vector2( 800, 0 ), Vector2( 800, 0 ), Vector2( -800, 0 ), Vector2( -800, 0 ), Vector2( 0, 0 ) ]
}

[node name="Cloud" type="Node2D"]

script = ExtResource( 1 )

[node name="Sprite" type="Sprite" parent="." index="0"]

texture = ExtResource( 2 )
_sections_unfolded = [ "Transform" ]

[node name="AnimationPlayer" type="AnimationPlayer" parent="Sprite" index="0"]

root_node = NodePath("..")
autoplay = "float"
playback_process_mode = 1
playback_default_blend_time = 0.0
playback_speed = 1.0
anims/float = SubResource( 1 )
blend_times = [  ]

[node name="RayCast2D" type="RayCast2D" parent="Sprite" index="1"]

enabled = true
exclude_parent = true
cast_to = Vector2( 0, 5000 )
collision_mask = 1

[node name="Timer" type="Timer" parent="Sprite" index="2"]

process_mode = 1
wait_time = 1.0
one_shot = true
autostart = false

[connection signal="timeout" from="Sprite/Timer" to="." method="_on_Timer_timeout"]


