[gd_scene load_steps=6 format=2]

[ext_resource path="res://assets/GFX/Items/portal_yellow.png" type="Texture" id=1]
[ext_resource path="res://assets/GFX/Particles/portal_yellowParticle.png" type="Texture" id=2]

[sub_resource type="RectangleShape2D" id=1]

custom_solver_bias = 0.0
extents = Vector2( 115.183, 41.9939 )

[sub_resource type="Animation" id=2]

resource_name = "pulsing"
length = 1.0
loop = true
step = 0.1
tracks/0/type = "value"
tracks/0/path = NodePath("Sprite:scale")
tracks/0/interp = 1
tracks/0/loop_wrap = true
tracks/0/imported = false
tracks/0/enabled = true
tracks/0/keys = {
"times": PoolRealArray( 0, 0.5, 1 ),
"transitions": PoolRealArray( 1, 1, 1 ),
"update": 0,
"values": [ Vector2( 1, 1 ), Vector2( 1.25, 1 ), Vector2( 1, 1 ) ]
}

[sub_resource type="ParticlesMaterial" id=3]

render_priority = 0
trail_divisor = 1
emission_shape = 1
emission_sphere_radius = 58.58
flag_align_y = false
flag_rotate_y = false
flag_disable_z = true
spread = 45.0
flatness = 0.0
gravity = Vector3( 0, 98, 0 )
initial_velocity = 1.0
initial_velocity_random = 0.0
angular_velocity = 0.0
angular_velocity_random = 0.0
orbit_velocity = 0.5
orbit_velocity_random = 0.0
linear_accel = 0.0
linear_accel_random = 0.0
radial_accel = 0.0
radial_accel_random = 0.0
tangential_accel = 0.0
tangential_accel_random = 0.0
damping = 0.0
damping_random = 0.0
angle = 0.0
angle_random = 0.0
scale = 1.0
scale_random = 0.0
color = Color( 1, 1, 1, 1 )
hue_variation = 0.0
hue_variation_random = 0.0
anim_speed = 0.0
anim_speed_random = 0.0
anim_offset = 0.0
anim_offset_random = 0.0
anim_loop = false
_sections_unfolded = [ "Angle", "Angular Velocity", "Emission Shape", "Flags", "Gravity", "Initial Velocity", "Linear Accel", "Orbit Velocity", "Scale", "Spread", "Trail" ]

[node name="Portal" type="Area2D"]

input_pickable = true
gravity_vec = Vector2( 0, 1 )
gravity = 98.0
linear_damp = 0.1
angular_damp = 1.0
audio_bus_override = false
audio_bus_name = "Master"
__meta__ = {
"_edit_group_": true
}

[node name="Sprite" type="Sprite" parent="." index="0"]

scale = Vector2( 1.07615, 1 )
texture = ExtResource( 1 )
_sections_unfolded = [ "Animation", "Offset", "Transform" ]

[node name="CollisionShape2D" type="CollisionShape2D" parent="." index="1"]

visible = false
shape = SubResource( 1 )

[node name="AnimationPlayer" type="AnimationPlayer" parent="." index="2"]

root_node = NodePath("..")
autoplay = "pulsing"
playback_process_mode = 1
playback_default_blend_time = 0.0
playback_speed = 1.0
anims/pulsing = SubResource( 2 )
blend_times = [  ]

[node name="Particles2D" type="Particles2D" parent="." index="3"]

emitting = true
amount = 8
lifetime = 1.0
one_shot = false
preprocess = 0.0
speed_scale = 1.0
explosiveness = 0.0
randomness = 0.0
fixed_fps = 0
fract_delta = true
visibility_rect = Rect2( -100, -100, 200, 200 )
local_coords = true
draw_order = 0
process_material = SubResource( 3 )
texture = ExtResource( 2 )
normal_map = null
h_frames = 1
v_frames = 1
_sections_unfolded = [ "Drawing", "Material", "Process Material", "Textures", "Time", "Transform" ]


